\relax 
\providecommand*\new@tpo@label[2]{}
\catcode `"\active 
\abx@aux@refcontext{anyt/global//global/global}
\providecommand\@newglossary[4]{}
\@newglossary{main}{glg}{gls}{glo}
\@newglossary{acronym}{alg}{acr}{acn}
\providecommand\@glsorder[1]{}
\providecommand\@istfilename[1]{}
\@istfilename{main.ist}
\@glsorder{word}
\@writefile{toc}{\boolfalse {citerequest}\boolfalse {citetracker}\boolfalse {pagetracker}\boolfalse {backtracker}\relax }
\@writefile{lof}{\boolfalse {citerequest}\boolfalse {citetracker}\boolfalse {pagetracker}\boolfalse {backtracker}\relax }
\@writefile{lot}{\boolfalse {citerequest}\boolfalse {citetracker}\boolfalse {pagetracker}\boolfalse {backtracker}\relax }
\babel@aux{ngerman}{}
\@input{typokonvention.aux}
\@writefile{toc}{\contentsline {section}{\nonumberline Abbildungsverzeichnis}{II}\protected@file@percent }
\@input{src/Abkuerzungsverzeichnis.aux}
\@input{src/Einleitung.aux}
\abx@aux@cite{KnowBaseWiki}
\abx@aux@segm{0}{0}{KnowBaseWiki}
\abx@aux@cite{KnowBase85}
\abx@aux@segm{0}{0}{KnowBase85}
\@input{src/Anforderungen.aux}
\abx@aux@cite{AgileBuissness}
\abx@aux@segm{0}{0}{AgileBuissness}
\abx@aux@cite{UserStoriesAgile}
\abx@aux@segm{0}{0}{UserStoriesAgile}
\@input{src/Konzeption.aux}
\abx@aux@cite{Redmine}
\abx@aux@segm{0}{0}{Redmine}
\abx@aux@cite{RedmineAPI}
\abx@aux@segm{0}{0}{RedmineAPI}
\abx@aux@segm{0}{0}{RedmineAPI}
\abx@aux@segm{0}{0}{RedmineAPI}
\abx@aux@cite{ZabbixDef}
\abx@aux@segm{0}{0}{ZabbixDef}
\abx@aux@cite{ZabbixAPI}
\abx@aux@segm{0}{0}{ZabbixAPI}
\abx@aux@cite{Lighthouse}
\abx@aux@segm{0}{0}{Lighthouse}
\abx@aux@cite{PlacetelAPI}
\abx@aux@segm{0}{0}{PlacetelAPI}
\abx@aux@cite{PlacetelAPICallNotify}
\abx@aux@segm{0}{0}{PlacetelAPICallNotify}
\abx@aux@cite{EspoCRM}
\abx@aux@segm{0}{0}{EspoCRM}
\abx@aux@cite{EspoCRMAPI}
\abx@aux@segm{0}{0}{EspoCRMAPI}
\@input{src/OpenSourceDataLake.aux}
\abx@aux@cite{SolrDef}
\abx@aux@segm{0}{0}{SolrDef}
\abx@aux@cite{LuceneFeatures}
\abx@aux@segm{0}{0}{LuceneFeatures}
\abx@aux@cite{SolrEinst}
\abx@aux@segm{0}{0}{SolrEinst}
\@input{src/Fazit.aux}
\abx@aux@cite{neo4j}
\abx@aux@segm{0}{0}{neo4j}
\@writefile{toc}{\contentsline {section}{Literatur- und Quellenverzeichnis}{V}\protected@file@percent }
\@input{src/Anhang.aux}
\abx@aux@refcontextdefaultsdone
\abx@aux@defaultrefcontext{0}{UserStoriesAgile}{anyt/global//global/global}
\abx@aux@defaultrefcontext{0}{KnowBaseWiki}{anyt/global//global/global}
\abx@aux@defaultrefcontext{0}{SolrEinst}{anyt/global//global/global}
\abx@aux@defaultrefcontext{0}{Lighthouse}{anyt/global//global/global}
\abx@aux@defaultrefcontext{0}{EspoCRMAPI}{anyt/global//global/global}
\abx@aux@defaultrefcontext{0}{EspoCRM}{anyt/global//global/global}
\abx@aux@defaultrefcontext{0}{LuceneFeatures}{anyt/global//global/global}
\abx@aux@defaultrefcontext{0}{neo4j}{anyt/global//global/global}
\abx@aux@defaultrefcontext{0}{Redmine}{anyt/global//global/global}
\abx@aux@defaultrefcontext{0}{RedmineAPI}{anyt/global//global/global}
\abx@aux@defaultrefcontext{0}{KnowBase85}{anyt/global//global/global}
\abx@aux@defaultrefcontext{0}{SolrDef}{anyt/global//global/global}
\abx@aux@defaultrefcontext{0}{ZabbixDef}{anyt/global//global/global}
\abx@aux@defaultrefcontext{0}{ZabbixAPI}{anyt/global//global/global}
\abx@aux@defaultrefcontext{0}{AgileBuissness}{anyt/global//global/global}
\abx@aux@defaultrefcontext{0}{PlacetelAPI}{anyt/global//global/global}
\abx@aux@defaultrefcontext{0}{PlacetelAPICallNotify}{anyt/global//global/global}
\@writefile{toc}{\contentsline {section}{Ehrenw\IeC {\"o}rtliche Erkl\IeC {\"a}rung}{VI}\protected@file@percent }
\global\@namedef{scr@dte@section@lastmaxnumwidth}{11.47185pt}
\global\@namedef{scr@dte@subsection@lastmaxnumwidth}{23.88351pt}
\global\@namedef{scr@dte@figure@lastmaxnumwidth}{12.43433pt}
